[
{
	probability: 20
	textureRegion: { x: 0, y: 0, width: 10, height: 10 }
	position: { x: 0, y: 0 }
	direction: { x: -1, y: 0 }
	angle: 0
	spin: 0
}
{
	probability: 10
	textureRegion: { x: 0, y: 14, width: 18, height: 18 }
	position: { x: 0, y: 0 }
	direction: { x: -1, y: 0 }
	angle: 0
	spin: 0
}
{
	probability: 5
	textureRegion: { x: 22, y: 0, width: 37, height: 32 }
	position: { x: 0, y: 0 }
	direction: { x: -1, y: 0 }
	angle: 0
	spin: 0
}
]