info face="Exo Regular" size=32 bold=0 italic=0 charset="" unicode=0 stretchH=100 smooth=1 aa=1 padding=1,1,1,1 spacing=-2,-2
common lineHeight=33 base=25 scaleW=512 scaleH=512 pages=1 packed=0
page id=0 file="Exo32.png"
chars count=119
char id=10    x=0    y=0    width=0    height=0    xoffset=0    yoffset=0    xadvance=0    page=0    chnl=0 
char id=32    x=0    y=0    width=0    height=0    xoffset=-1   yoffset=32   xadvance=8    page=0    chnl=0 
char id=33    x=477  y=36   width=5    height=25   xoffset=2    yoffset=9    xadvance=9    page=0    chnl=0 
char id=34    x=384  y=61   width=9    height=8    xoffset=2    yoffset=9    xadvance=13   page=0    chnl=0 
char id=35    x=30   y=61   width=24   height=25   xoffset=-1   yoffset=9    xadvance=22   page=0    chnl=0 
char id=36    x=67   y=0    width=17   height=32   xoffset=1    yoffset=5    xadvance=19   page=0    chnl=0 
char id=37    x=0    y=61   width=30   height=25   xoffset=0    yoffset=9    xadvance=30   page=0    chnl=0 
char id=38    x=324  y=0    width=23   height=27   xoffset=-2   yoffset=8    xadvance=20   page=0    chnl=0 
char id=39    x=393  y=61   width=5    height=8    xoffset=1    yoffset=9    xadvance=6    page=0    chnl=0 
char id=40    x=0    y=0    width=10   height=36   xoffset=1    yoffset=5    xadvance=10   page=0    chnl=0 
char id=41    x=10   y=0    width=11   height=36   xoffset=-1   yoffset=5    xadvance=11   page=0    chnl=0 
char id=42    x=347  y=61   width=14   height=14   xoffset=1    yoffset=8    xadvance=15   page=0    chnl=0 
char id=43    x=332  y=61   width=15   height=15   xoffset=1    yoffset=14   xadvance=17   page=0    chnl=0 
char id=44    x=377  y=61   width=7    height=9    xoffset=1    yoffset=29   xadvance=9    page=0    chnl=0 
char id=45    x=439  y=61   width=12   height=5    xoffset=0    yoffset=21   xadvance=12   page=0    chnl=0 
char id=46    x=434  y=61   width=5    height=5    xoffset=2    yoffset=29   xadvance=9    page=0    chnl=0 
char id=47    x=133  y=0    width=15   height=29   xoffset=-1   yoffset=7    xadvance=13   page=0    chnl=0 
char id=48    x=459  y=36   width=18   height=25   xoffset=1    yoffset=9    xadvance=20   page=0    chnl=0 
char id=49    x=301  y=36   width=11   height=25   xoffset=0    yoffset=9    xadvance=12   page=0    chnl=0 
char id=50    x=312  y=36   width=18   height=25   xoffset=0    yoffset=9    xadvance=19   page=0    chnl=0 
char id=51    x=330  y=36   width=18   height=25   xoffset=0    yoffset=9    xadvance=19   page=0    chnl=0 
char id=52    x=348  y=36   width=21   height=25   xoffset=-1   yoffset=9    xadvance=19   page=0    chnl=0 
char id=53    x=369  y=36   width=18   height=25   xoffset=1    yoffset=9    xadvance=19   page=0    chnl=0 
char id=54    x=387  y=36   width=18   height=25   xoffset=1    yoffset=9    xadvance=20   page=0    chnl=0 
char id=55    x=405  y=36   width=18   height=25   xoffset=0    yoffset=9    xadvance=17   page=0    chnl=0 
char id=56    x=423  y=36   width=18   height=25   xoffset=1    yoffset=9    xadvance=20   page=0    chnl=0 
char id=57    x=441  y=36   width=18   height=25   xoffset=1    yoffset=9    xadvance=20   page=0    chnl=0 
char id=58    x=299  y=61   width=5    height=19   xoffset=2    yoffset=15   xadvance=9    page=0    chnl=0 
char id=59    x=505  y=36   width=6    height=23   xoffset=2    yoffset=15   xadvance=9    page=0    chnl=0 
char id=60    x=304  y=61   width=14   height=16   xoffset=1    yoffset=14   xadvance=16   page=0    chnl=0 
char id=61    x=361  y=61   width=16   height=11   xoffset=0    yoffset=16   xadvance=16   page=0    chnl=0 
char id=62    x=318  y=61   width=14   height=16   xoffset=1    yoffset=14   xadvance=16   page=0    chnl=0 
char id=63    x=482  y=36   width=18   height=25   xoffset=0    yoffset=9    xadvance=18   page=0    chnl=0 
char id=64    x=104  y=0    width=24   height=31   xoffset=1    yoffset=9    xadvance=27   page=0    chnl=0 
char id=65    x=347  y=0    width=22   height=25   xoffset=0    yoffset=9    xadvance=21   page=0    chnl=0 
char id=66    x=369  y=0    width=18   height=25   xoffset=2    yoffset=9    xadvance=20   page=0    chnl=0 
char id=67    x=387  y=0    width=18   height=25   xoffset=1    yoffset=9    xadvance=19   page=0    chnl=0 
char id=68    x=405  y=0    width=19   height=25   xoffset=2    yoffset=9    xadvance=21   page=0    chnl=0 
char id=69    x=424  y=0    width=16   height=25   xoffset=2    yoffset=9    xadvance=18   page=0    chnl=0 
char id=70    x=440  y=0    width=16   height=25   xoffset=2    yoffset=9    xadvance=18   page=0    chnl=0 
char id=71    x=456  y=0    width=18   height=25   xoffset=1    yoffset=9    xadvance=20   page=0    chnl=0 
char id=72    x=474  y=0    width=18   height=25   xoffset=2    yoffset=9    xadvance=21   page=0    chnl=0 
char id=73    x=492  y=0    width=5    height=25   xoffset=2    yoffset=9    xadvance=7    page=0    chnl=0 
char id=74    x=497  y=0    width=12   height=25   xoffset=-1   yoffset=9    xadvance=11   page=0    chnl=0 
char id=75    x=0    y=36   width=18   height=25   xoffset=2    yoffset=9    xadvance=19   page=0    chnl=0 
char id=76    x=18   y=36   width=16   height=25   xoffset=2    yoffset=9    xadvance=18   page=0    chnl=0 
char id=77    x=34   y=36   width=24   height=25   xoffset=2    yoffset=9    xadvance=26   page=0    chnl=0 
char id=78    x=58   y=36   width=20   height=25   xoffset=2    yoffset=9    xadvance=22   page=0    chnl=0 
char id=79    x=78   y=36   width=20   height=25   xoffset=1    yoffset=9    xadvance=21   page=0    chnl=0 
char id=80    x=98   y=36   width=18   height=25   xoffset=1    yoffset=9    xadvance=19   page=0    chnl=0 
char id=81    x=84   y=0    width=20   height=31   xoffset=1    yoffset=9    xadvance=21   page=0    chnl=0 
char id=82    x=116  y=36   width=19   height=25   xoffset=1    yoffset=9    xadvance=19   page=0    chnl=0 
char id=83    x=135  y=36   width=17   height=25   xoffset=1    yoffset=9    xadvance=18   page=0    chnl=0 
char id=84    x=152  y=36   width=18   height=25   xoffset=0    yoffset=9    xadvance=18   page=0    chnl=0 
char id=85    x=170  y=36   width=19   height=25   xoffset=2    yoffset=9    xadvance=22   page=0    chnl=0 
char id=86    x=189  y=36   width=22   height=25   xoffset=0    yoffset=9    xadvance=21   page=0    chnl=0 
char id=87    x=211  y=36   width=31   height=25   xoffset=0    yoffset=9    xadvance=31   page=0    chnl=0 
char id=88    x=242  y=36   width=20   height=25   xoffset=0    yoffset=9    xadvance=19   page=0    chnl=0 
char id=89    x=262  y=36   width=21   height=25   xoffset=0    yoffset=9    xadvance=20   page=0    chnl=0 
char id=90    x=283  y=36   width=18   height=25   xoffset=0    yoffset=9    xadvance=18   page=0    chnl=0 
char id=91    x=21   y=0    width=9    height=36   xoffset=2    yoffset=5    xadvance=11   page=0    chnl=0 
char id=92    x=148  y=0    width=15   height=29   xoffset=-1   yoffset=7    xadvance=13   page=0    chnl=0 
char id=93    x=30   y=0    width=10   height=36   xoffset=-1   yoffset=5    xadvance=10   page=0    chnl=0 
char id=94    x=408  y=61   width=12   height=6    xoffset=0    yoffset=11   xadvance=13   page=0    chnl=0 
char id=95    x=451  y=61   width=22   height=5    xoffset=0    yoffset=29   xadvance=22   page=0    chnl=0 
char id=96    x=398  y=61   width=10   height=6    xoffset=-1   yoffset=11   xadvance=8    page=0    chnl=0 
char id=97    x=67   y=61   width=16   height=19   xoffset=0    yoffset=15   xadvance=17   page=0    chnl=0 
char id=98    x=235  y=0    width=17   height=27   xoffset=1    yoffset=7    xadvance=18   page=0    chnl=0 
char id=99    x=83   y=61   width=15   height=19   xoffset=1    yoffset=15   xadvance=16   page=0    chnl=0 
char id=100   x=252  y=0    width=17   height=27   xoffset=1    yoffset=7    xadvance=18   page=0    chnl=0 
char id=101   x=98   y=61   width=16   height=19   xoffset=1    yoffset=15   xadvance=17   page=0    chnl=0 
char id=102   x=269  y=0    width=14   height=27   xoffset=0    yoffset=7    xadvance=13   page=0    chnl=0 
char id=103   x=163  y=0    width=18   height=28   xoffset=1    yoffset=15   xadvance=18   page=0    chnl=0 
char id=104   x=283  y=0    width=16   height=27   xoffset=1    yoffset=7    xadvance=18   page=0    chnl=0 
char id=105   x=500  y=36   width=5    height=24   xoffset=1    yoffset=10   xadvance=7    page=0    chnl=0 
char id=106   x=62   y=0    width=5    height=33   xoffset=1    yoffset=10   xadvance=7    page=0    chnl=0 
char id=107   x=299  y=0    width=16   height=27   xoffset=1    yoffset=7    xadvance=16   page=0    chnl=0 
char id=108   x=315  y=0    width=9    height=27   xoffset=1    yoffset=7    xadvance=10   page=0    chnl=0 
char id=109   x=114  y=61   width=28   height=19   xoffset=1    yoffset=15   xadvance=29   page=0    chnl=0 
char id=110   x=142  y=61   width=16   height=19   xoffset=1    yoffset=15   xadvance=18   page=0    chnl=0 
char id=111   x=158  y=61   width=17   height=19   xoffset=1    yoffset=15   xadvance=19   page=0    chnl=0 
char id=112   x=181  y=0    width=17   height=28   xoffset=1    yoffset=15   xadvance=18   page=0    chnl=0 
char id=113   x=198  y=0    width=17   height=28   xoffset=1    yoffset=15   xadvance=18   page=0    chnl=0 
char id=114   x=175  y=61   width=13   height=19   xoffset=1    yoffset=15   xadvance=14   page=0    chnl=0 
char id=115   x=188  y=61   width=16   height=19   xoffset=0    yoffset=15   xadvance=16   page=0    chnl=0 
char id=116   x=54   y=61   width=13   height=24   xoffset=0    yoffset=10   xadvance=13   page=0    chnl=0 
char id=117   x=204  y=61   width=16   height=19   xoffset=1    yoffset=15   xadvance=18   page=0    chnl=0 
char id=118   x=220  y=61   width=19   height=19   xoffset=-1   yoffset=15   xadvance=17   page=0    chnl=0 
char id=119   x=239  y=61   width=27   height=19   xoffset=-1   yoffset=15   xadvance=26   page=0    chnl=0 
char id=120   x=266  y=61   width=18   height=19   xoffset=-1   yoffset=15   xadvance=17   page=0    chnl=0 
char id=121   x=215  y=0    width=20   height=28   xoffset=-1   yoffset=15   xadvance=18   page=0    chnl=0 
char id=122   x=284  y=61   width=15   height=19   xoffset=0    yoffset=15   xadvance=15   page=0    chnl=0 
char id=123   x=40   y=0    width=11   height=36   xoffset=0    yoffset=5    xadvance=11   page=0    chnl=0 
char id=124   x=128  y=0    width=5    height=29   xoffset=2    yoffset=7    xadvance=8    page=0    chnl=0 
char id=125   x=51   y=0    width=11   height=36   xoffset=-1   yoffset=5    xadvance=10   page=0    chnl=0 
char id=126   x=420  y=61   width=14   height=6    xoffset=0    yoffset=11   xadvance=14   page=0    chnl=0 
char id=178   x=91   y=91   width=12   height=17   xoffset=0    yoffset=4    xadvance=12   page=0    chnl=0 
char id=179   x=103  y=91   width=12   height=17   xoffset=0    yoffset=4    xadvance=13   page=0    chnl=0 
char id=196   x=473  y=61   width=22   height=30   xoffset=0    yoffset=4    xadvance=22   page=0    chnl=0 
char id=214   x=0    y=91   width=20   height=30   xoffset=1    yoffset=4    xadvance=21   page=0    chnl=0 
char id=220   x=20   y=91   width=19   height=31   xoffset=2    yoffset=3    xadvance=22   page=0    chnl=0 
char id=223   x=39   y=91   width=19   height=27   xoffset=1    yoffset=7    xadvance=18   page=0    chnl=0 
char id=228   x=495  y=61   width=16   height=24   xoffset=0    yoffset=10   xadvance=17   page=0    chnl=0 
char id=246   x=58   y=91   width=17   height=24   xoffset=1    yoffset=10   xadvance=19   page=0    chnl=0 
char id=252   x=75   y=91   width=16   height=24   xoffset=1    yoffset=10   xadvance=18   page=0    chnl=0 
char id=8308  x=128  y=91   width=15   height=17   xoffset=-1   yoffset=4    xadvance=14   page=0    chnl=0 
char id=8309  x=143  y=91   width=12   height=17   xoffset=1    yoffset=4    xadvance=13   page=0    chnl=0 
char id=8310  x=115  y=91   width=13   height=18   xoffset=1    yoffset=3    xadvance=14   page=0    chnl=0 
char id=8311  x=155  y=91   width=13   height=17   xoffset=-1   yoffset=4    xadvance=12   page=0    chnl=0 
char id=8312  x=168  y=91   width=13   height=17   xoffset=1    yoffset=4    xadvance=15   page=0    chnl=0 
char id=8313  x=181  y=91   width=13   height=17   xoffset=0    yoffset=4    xadvance=14   page=0    chnl=0 
char id=8322  x=194  y=91   width=12   height=17   xoffset=0    yoffset=23   xadvance=12   page=0    chnl=0 
char id=8323  x=495  y=61   width=12   height=17   xoffset=0    yoffset=23   xadvance=13   page=0    chnl=0 
char id=8324  x=75   y=91   width=15   height=17   xoffset=-1   yoffset=23   xadvance=14   page=0    chnl=0 
char id=8325  x=206  y=91   width=12   height=17   xoffset=1    yoffset=23   xadvance=13   page=0    chnl=0 
char id=8326  x=218  y=91   width=13   height=17   xoffset=1    yoffset=23   xadvance=14   page=0    chnl=0 
char id=8327  x=128  y=91   width=13   height=17   xoffset=-1   yoffset=23   xadvance=12   page=0    chnl=0 
char id=8328  x=231  y=91   width=13   height=17   xoffset=1    yoffset=23   xadvance=15   page=0    chnl=0 
char id=8329  x=244  y=91   width=13   height=17   xoffset=0    yoffset=23   xadvance=14   page=0    chnl=0 
kernings count=674
kerning first=77 second=39 amount=-1
kerning first=65 second=71 amount=-1
kerning first=77 second=86 amount=-1
kerning first=89 second=103 amount=-3
kerning first=65 second=108 amount=-1
kerning first=70 second=111 amount=-1
kerning first=120 second=97 amount=-1
kerning first=84 second=97 amount=-4
kerning first=102 second=252 amount=-1
kerning first=70 second=67 amount=-1
kerning first=65 second=118 amount=-3
kerning first=87 second=101 amount=-3
kerning first=88 second=121 amount=-1
kerning first=89 second=214 amount=-2
kerning first=77 second=69 amount=-1
kerning first=84 second=71 amount=-1
kerning first=87 second=114 amount=-2
kerning first=84 second=58 amount=-1
kerning first=86 second=79 amount=-1
kerning first=89 second=46 amount=-4
kerning first=86 second=65 amount=-4
kerning first=70 second=119 amount=-1
kerning first=102 second=112 amount=-1
kerning first=196 second=81 amount=-1
kerning first=89 second=115 amount=-3
kerning first=83 second=116 amount=-1
kerning first=84 second=196 amount=-4
kerning first=196 second=67 amount=-1
kerning first=81 second=67 amount=-1
kerning first=85 second=74 amount=-1
kerning first=246 second=70 amount=-1
kerning first=68 second=70 amount=-1
kerning first=89 second=111 amount=-4
kerning first=82 second=113 amount=-1
kerning first=65 second=79 amount=-1
kerning first=196 second=118 amount=-3
kerning first=196 second=102 amount=-1
kerning first=88 second=69 amount=-1
kerning first=76 second=101 amount=-1
kerning first=107 second=113 amount=-1
kerning first=87 second=228 amount=-2
kerning first=118 second=44 amount=-2
kerning first=80 second=99 amount=-1
kerning first=87 second=214 amount=-1
kerning first=98 second=45 amount=1
kerning first=121 second=246 amount=-1
kerning first=98 second=59 amount=-1
kerning first=220 second=46 amount=-1
kerning first=114 second=46 amount=-3
kerning first=103 second=46 amount=-1
kerning first=102 second=228 amount=-1
kerning first=81 second=89 amount=-2
kerning first=246 second=45 amount=1
kerning first=79 second=88 amount=-1
kerning first=108 second=116 amount=-1
kerning first=70 second=252 amount=-1
kerning first=111 second=120 amount=-1
kerning first=81 second=214 amount=-1
kerning first=114 second=111 amount=-1
kerning first=68 second=84 amount=-1
kerning first=75 second=214 amount=-2
kerning first=121 second=100 amount=-1
kerning first=87 second=69 amount=-1
kerning first=84 second=67 amount=-1
kerning first=68 second=113 amount=-1
kerning first=246 second=118 amount=-1
kerning first=107 second=44 amount=-1
kerning first=86 second=59 amount=-1
kerning first=79 second=74 amount=-1
kerning first=76 second=99 amount=-1
kerning first=76 second=71 amount=-1
kerning first=107 second=246 amount=-1
kerning first=98 second=58 amount=-1
kerning first=82 second=100 amount=-1
kerning first=103 second=111 amount=-1
kerning first=70 second=102 amount=-1
kerning first=76 second=84 amount=-4
kerning first=75 second=115 amount=-1
kerning first=70 second=196 amount=-3
kerning first=87 second=79 amount=-1
kerning first=196 second=70 amount=-1
kerning first=99 second=100 amount=-1
kerning first=79 second=113 amount=-1
kerning first=81 second=196 amount=-2
kerning first=102 second=99 amount=-1
kerning first=87 second=71 amount=-1
kerning first=84 second=252 amount=-4
kerning first=84 second=246 amount=-5
kerning first=89 second=120 amount=-2
kerning first=80 second=44 amount=-5
kerning first=119 second=111 amount=-1
kerning first=214 second=59 amount=-1
kerning first=70 second=97 amount=-1
kerning first=65 second=84 amount=-3
kerning first=214 second=46 amount=-2
kerning first=80 second=86 amount=-1
kerning first=88 second=115 amount=-1
kerning first=99 second=99 amount=-1
kerning first=86 second=116 amount=-1
kerning first=81 second=39 amount=-1
kerning first=79 second=100 amount=-1
kerning first=65 second=100 amount=-1
kerning first=89 second=67 amount=-2
kerning first=65 second=70 amount=-1
kerning first=87 second=196 amount=-4
kerning first=196 second=113 amount=-1
kerning first=68 second=101 amount=-1
kerning first=214 second=86 amount=-1
kerning first=121 second=44 amount=-2
kerning first=85 second=44 amount=-1
kerning first=86 second=71 amount=-1
kerning first=88 second=99 amount=-1
kerning first=83 second=86 amount=1
kerning first=196 second=84 amount=-3
kerning first=98 second=46 amount=-1
kerning first=83 second=59 amount=-1
kerning first=80 second=65 amount=-3
kerning first=102 second=246 amount=-1
kerning first=68 second=74 amount=-1
kerning first=81 second=71 amount=-1
kerning first=112 second=58 amount=-1
kerning first=84 second=99 amount=-5
kerning first=86 second=46 amount=-3
kerning first=88 second=103 amount=-1
kerning first=70 second=214 amount=-1
kerning first=75 second=116 amount=-1
kerning first=70 second=115 amount=-1
kerning first=111 second=116 amount=-1
kerning first=86 second=120 amount=-1
kerning first=82 second=79 amount=-1
kerning first=220 second=196 amount=-1
kerning first=68 second=100 amount=-1
kerning first=77 second=59 amount=-1
kerning first=112 second=70 amount=-1
kerning first=65 second=113 amount=-1
kerning first=79 second=84 amount=-1
kerning first=81 second=111 amount=-1
kerning first=65 second=101 amount=-1
kerning first=89 second=112 amount=-2
kerning first=86 second=112 amount=-1
kerning first=89 second=110 amount=-2
kerning first=67 second=214 amount=-1
kerning first=84 second=114 amount=-4
kerning first=121 second=99 amount=-1
kerning first=115 second=58 amount=-1
kerning first=79 second=58 amount=-1
kerning first=111 second=46 amount=-1
kerning first=87 second=97 amount=-2
kerning first=86 second=111 amount=-3
kerning first=98 second=102 amount=-1
kerning first=82 second=71 amount=-1
kerning first=87 second=70 amount=-1
kerning first=119 second=100 amount=-1
kerning first=81 second=88 amount=-1
kerning first=108 second=111 amount=-1
kerning first=76 second=113 amount=-1
kerning first=118 second=100 amount=-1
kerning first=76 second=118 amount=-2
kerning first=110 second=39 amount=-2
kerning first=87 second=113 amount=-3
kerning first=112 second=118 amount=-1
kerning first=68 second=69 amount=-1
kerning first=228 second=119 amount=-1
kerning first=84 second=119 amount=-3
kerning first=102 second=46 amount=-3
kerning first=80 second=81 amount=-1
kerning first=88 second=246 amount=-1
kerning first=66 second=65 amount=-1
kerning first=75 second=111 amount=-3
kerning first=82 second=99 amount=-1
kerning first=89 second=116 amount=-1
kerning first=79 second=101 amount=-1
kerning first=75 second=122 amount=-1
kerning first=67 second=101 amount=-2
kerning first=81 second=87 amount=-1
kerning first=98 second=70 amount=-1
kerning first=102 second=103 amount=-1
kerning first=68 second=79 amount=-1
kerning first=214 second=69 amount=-1
kerning first=79 second=67 amount=-1
kerning first=80 second=100 amount=-1
kerning first=114 second=101 amount=-1
kerning first=102 second=100 amount=-1
kerning first=196 second=119 amount=-3
kerning first=70 second=110 amount=-1
kerning first=89 second=81 amount=-2
kerning first=86 second=69 amount=-1
kerning first=82 second=87 amount=-1
kerning first=86 second=196 amount=-4
kerning first=112 second=102 amount=-1
kerning first=76 second=102 amount=-2
kerning first=75 second=71 amount=-2
kerning first=87 second=74 amount=-2
kerning first=65 second=246 amount=-1
kerning first=70 second=81 amount=-1
kerning first=89 second=228 amount=-3
kerning first=118 second=99 amount=-1
kerning first=118 second=97 amount=-1
kerning first=108 second=118 amount=-1
kerning first=77 second=70 amount=-1
kerning first=65 second=102 amount=-1
kerning first=103 second=101 amount=-1
kerning first=196 second=121 amount=-3
kerning first=120 second=46 amount=-1
kerning first=107 second=99 amount=-1
kerning first=89 second=252 amount=-2
kerning first=246 second=58 amount=-1
kerning first=84 second=59 amount=-1
kerning first=76 second=246 amount=-1
kerning first=98 second=44 amount=-1
kerning first=68 second=58 amount=-1
kerning first=75 second=228 amount=-1
kerning first=196 second=89 amount=-4
kerning first=196 second=79 amount=-1
kerning first=68 second=99 amount=-1
kerning first=87 second=111 amount=-3
kerning first=84 second=214 amount=-1
kerning first=84 second=113 amount=-5
kerning first=118 second=113 amount=-1
kerning first=70 second=118 amount=-1
kerning first=120 second=113 amount=-2
kerning first=89 second=69 amount=-1
kerning first=83 second=196 amount=-1
kerning first=111 second=39 amount=-1
kerning first=112 second=119 amount=-1
kerning first=76 second=119 amount=-2
kerning first=89 second=71 amount=-2
kerning first=83 second=84 amount=-1
kerning first=65 second=87 amount=-4
kerning first=65 second=89 amount=-4
kerning first=87 second=246 amount=-3
kerning first=68 second=67 amount=-1
kerning first=86 second=228 amount=-2
kerning first=68 second=86 amount=-1
kerning first=76 second=115 amount=-1
kerning first=115 second=102 amount=-1
kerning first=214 second=88 amount=-1
kerning first=79 second=89 amount=-2
kerning first=65 second=119 amount=-3
kerning first=111 second=69 amount=-1
kerning first=70 second=116 amount=-1
kerning first=102 second=115 amount=-1
kerning first=214 second=100 amount=-1
kerning first=76 second=87 amount=-3
kerning first=102 second=61 amount=-1
kerning first=87 second=109 amount=-2
kerning first=108 second=100 amount=-1
kerning first=84 second=118 amount=-3
kerning first=70 second=113 amount=-1
kerning first=81 second=70 amount=-1
kerning first=89 second=101 amount=-4
kerning first=246 second=121 amount=-1
kerning first=86 second=110 amount=-2
kerning first=89 second=113 amount=-4
kerning first=81 second=84 amount=-1
kerning first=81 second=59 amount=-1
kerning first=102 second=117 amount=-1
kerning first=246 second=102 amount=-1
kerning first=70 second=74 amount=-3
kerning first=119 second=44 amount=-2
kerning first=70 second=228 amount=-1
kerning first=79 second=87 amount=-1
kerning first=82 second=246 amount=-1
kerning first=118 second=246 amount=-1
kerning first=81 second=246 amount=-1
kerning first=86 second=115 amount=-2
kerning first=81 second=46 amount=-2
kerning first=89 second=59 amount=-1
kerning first=79 second=65 amount=-2
kerning first=88 second=100 amount=-1
kerning first=81 second=113 amount=-1
kerning first=86 second=252 amount=-2
kerning first=98 second=121 amount=-1
kerning first=196 second=214 amount=-1
kerning first=67 second=81 amount=-1
kerning first=84 second=74 amount=-2
kerning first=214 second=44 amount=-2
kerning first=214 second=71 amount=-1
kerning first=84 second=109 amount=-4
kerning first=121 second=97 amount=-1
kerning first=79 second=214 amount=-1
kerning first=84 second=116 amount=-2
kerning first=196 second=87 amount=-4
kerning first=89 second=118 amount=-1
kerning first=120 second=101 amount=-2
kerning first=84 second=101 amount=-5
kerning first=81 second=69 amount=-1
kerning first=65 second=121 amount=-3
kerning first=246 second=119 amount=-1
kerning first=67 second=111 amount=-2
kerning first=76 second=214 amount=-1
kerning first=89 second=70 amount=-1
kerning first=68 second=246 amount=-1
kerning first=68 second=65 amount=-2
kerning first=75 second=81 amount=-2
kerning first=87 second=102 amount=-1
kerning first=83 second=120 amount=-1
kerning first=83 second=121 amount=-1
kerning first=79 second=246 amount=-1
kerning first=108 second=115 amount=-1
kerning first=87 second=99 amount=-3
kerning first=84 second=79 amount=-1
kerning first=79 second=81 amount=-1
kerning first=103 second=113 amount=-1
kerning first=67 second=113 amount=-2
kerning first=68 second=87 amount=-1
kerning first=83 second=39 amount=-1
kerning first=114 second=113 amount=-1
kerning first=81 second=101 amount=-1
kerning first=76 second=121 amount=-2
kerning first=112 second=121 amount=-1
kerning first=89 second=196 amount=-4
kerning first=67 second=71 amount=-1
kerning first=86 second=44 amount=-3
kerning first=81 second=74 amount=-1
kerning first=102 second=44 amount=-3
kerning first=196 second=246 amount=-1
kerning first=119 second=228 amount=-1
kerning first=84 second=111 amount=-5
kerning first=87 second=67 amount=-1
kerning first=120 second=111 amount=-2
kerning first=98 second=116 amount=-1
kerning first=67 second=79 amount=-1
kerning first=65 second=214 amount=-1
kerning first=112 second=45 amount=1
kerning first=75 second=103 amount=-1
kerning first=81 second=81 amount=-1
kerning first=108 second=39 amount=-1
kerning first=214 second=39 amount=-1
kerning first=102 second=97 amount=-1
kerning first=87 second=65 amount=-4
kerning first=86 second=109 amount=-2
kerning first=88 second=67 amount=-1
kerning first=86 second=122 amount=-1
kerning first=111 second=70 amount=-1
kerning first=89 second=100 amount=-4
kerning first=83 second=118 amount=-1
kerning first=87 second=58 amount=-1
kerning first=79 second=99 amount=-1
kerning first=70 second=121 amount=-1
kerning first=84 second=110 amount=-4
kerning first=102 second=110 amount=-1
kerning first=111 second=44 amount=-1
kerning first=118 second=111 amount=-1
kerning first=82 second=111 amount=-1
kerning first=76 second=67 amount=-1
kerning first=81 second=65 amount=-2
kerning first=220 second=74 amount=-1
kerning first=75 second=83 amount=-1
kerning first=87 second=116 amount=-1
kerning first=107 second=46 amount=-1
kerning first=86 second=214 amount=-1
kerning first=87 second=103 amount=-2
kerning first=88 second=119 amount=-1
kerning first=84 second=112 amount=-3
kerning first=65 second=116 amount=-1
kerning first=66 second=196 amount=-1
kerning first=98 second=119 amount=-1
kerning first=80 second=88 amount=-1
kerning first=114 second=100 amount=-1
kerning first=246 second=120 amount=-1
kerning first=86 second=70 amount=-1
kerning first=107 second=111 amount=-1
kerning first=196 second=99 amount=-1
kerning first=85 second=65 amount=-1
kerning first=70 second=101 amount=-1
kerning first=79 second=196 amount=-2
kerning first=87 second=77 amount=-1
kerning first=70 second=65 amount=-3
kerning first=67 second=246 amount=-2
kerning first=103 second=246 amount=-1
kerning first=77 second=58 amount=-1
kerning first=68 second=81 amount=-1
kerning first=112 second=44 amount=-1
kerning first=76 second=116 amount=-2
kerning first=112 second=116 amount=-1
kerning first=85 second=46 amount=-1
kerning first=84 second=228 amount=-4
kerning first=120 second=228 amount=-1
kerning first=88 second=111 amount=-1
kerning first=196 second=116 amount=-1
kerning first=65 second=81 amount=-1
kerning first=67 second=100 amount=-2
kerning first=103 second=100 amount=-1
kerning first=88 second=97 amount=-1
kerning first=75 second=113 amount=-3
kerning first=83 second=58 amount=-1
kerning first=97 second=118 amount=-1
kerning first=86 second=118 amount=-1
kerning first=86 second=113 amount=-3
kerning first=228 second=118 amount=-1
kerning first=89 second=109 amount=-2
kerning first=86 second=103 amount=-2
kerning first=84 second=121 amount=-3
kerning first=98 second=69 amount=-1
kerning first=87 second=112 amount=-1
kerning first=89 second=44 amount=-4
kerning first=68 second=214 amount=-1
kerning first=89 second=117 amount=-2
kerning first=80 second=71 amount=-1
kerning first=246 second=59 amount=-1
kerning first=68 second=59 amount=-1
kerning first=114 second=246 amount=-1
kerning first=89 second=246 amount=-4
kerning first=102 second=45 amount=-1
kerning first=121 second=111 amount=-1
kerning first=88 second=102 amount=-1
kerning first=89 second=65 amount=-4
kerning first=84 second=69 amount=-1
kerning first=115 second=116 amount=-1
kerning first=81 second=44 amount=-2
kerning first=66 second=88 amount=-1
kerning first=82 second=214 amount=-1
kerning first=109 second=39 amount=-2
kerning first=111 second=61 amount=1
kerning first=89 second=74 amount=-2
kerning first=214 second=70 amount=-1
kerning first=81 second=100 amount=-1
kerning first=111 second=118 amount=-1
kerning first=75 second=118 amount=-1
kerning first=80 second=101 amount=-1
kerning first=120 second=99 amount=-2
kerning first=114 second=44 amount=-3
kerning first=80 second=46 amount=-5
kerning first=81 second=86 amount=-1
kerning first=115 second=59 amount=-1
kerning first=79 second=59 amount=-1
kerning first=65 second=111 amount=-1
kerning first=82 second=67 amount=-1
kerning first=81 second=99 amount=-1
kerning first=84 second=83 amount=-1
kerning first=68 second=46 amount=-2
kerning first=68 second=89 amount=-2
kerning first=87 second=81 amount=-1
kerning first=246 second=116 amount=-1
kerning first=89 second=79 amount=-2
kerning first=79 second=70 amount=-1
kerning first=65 second=85 amount=-1
kerning first=119 second=97 amount=-1
kerning first=98 second=118 amount=-1
kerning first=214 second=113 amount=-1
kerning first=108 second=113 amount=-1
kerning first=79 second=86 amount=-1
kerning first=86 second=101 amount=-3
kerning first=196 second=111 amount=-1
kerning first=79 second=79 amount=-1
kerning first=89 second=121 amount=-1
kerning first=102 second=102 amount=-1
kerning first=103 second=44 amount=-1
kerning first=70 second=99 amount=-1
kerning first=65 second=86 amount=-4
kerning first=214 second=84 amount=-1
kerning first=76 second=81 amount=-1
kerning first=101 second=59 amount=-1
kerning first=86 second=74 amount=-2
kerning first=79 second=46 amount=-2
kerning first=115 second=46 amount=-1
kerning first=70 second=103 amount=-1
kerning first=88 second=214 amount=-1
kerning first=76 second=85 amount=-2
kerning first=86 second=100 amount=-3
kerning first=79 second=111 amount=-1
kerning first=89 second=122 amount=-2
kerning first=119 second=113 amount=-1
kerning first=119 second=101 amount=-1
kerning first=196 second=86 amount=-4
kerning first=76 second=86 amount=-4
kerning first=112 second=59 amount=-1
kerning first=102 second=114 amount=-1
kerning first=103 second=99 amount=-1
kerning first=67 second=99 amount=-2
kerning first=89 second=83 amount=-1
kerning first=246 second=46 amount=-1
kerning first=88 second=71 amount=-1
kerning first=84 second=81 amount=-1
kerning first=68 second=111 amount=-1
kerning first=114 second=99 amount=-1
kerning first=75 second=70 amount=-1
kerning first=75 second=79 amount=-2
kerning first=75 second=100 amount=-3
kerning first=70 second=109 amount=-1
kerning first=65 second=69 amount=-1
kerning first=214 second=81 amount=-1
kerning first=80 second=196 amount=-3
kerning first=70 second=246 amount=-1
kerning first=86 second=117 amount=-2
kerning first=87 second=59 amount=-1
kerning first=84 second=65 amount=-4
kerning first=81 second=79 amount=-1
kerning first=214 second=101 amount=-1
kerning first=214 second=58 amount=-1
kerning first=118 second=46 amount=-2
kerning first=120 second=246 amount=-2
kerning first=101 second=46 amount=-1
kerning first=84 second=103 amount=-4
kerning first=120 second=103 amount=-1
kerning first=196 second=85 amount=-1
kerning first=75 second=97 amount=-1
kerning first=196 second=69 amount=-1
kerning first=65 second=99 amount=-1
kerning first=220 second=44 amount=-1
kerning first=80 second=113 amount=-1
kerning first=196 second=220 amount=-1
kerning first=220 second=65 amount=-1
kerning first=97 second=121 amount=-1
kerning first=196 second=83 amount=-1
kerning first=101 second=58 amount=-1
kerning first=80 second=87 amount=-1
kerning first=108 second=119 amount=-1
kerning first=120 second=44 amount=-1
kerning first=84 second=44 amount=-3
kerning first=80 second=214 amount=-1
kerning first=246 second=69 amount=-1
kerning first=68 second=196 amount=-2
kerning first=214 second=65 amount=-2
kerning first=119 second=246 amount=-1
kerning first=214 second=196 amount=-2
kerning first=214 second=67 amount=-1
kerning first=111 second=58 amount=-1
kerning first=76 second=111 amount=-1
kerning first=79 second=39 amount=-1
kerning first=97 second=119 amount=-1
kerning first=87 second=100 amount=-3
kerning first=86 second=97 amount=-2
kerning first=111 second=59 amount=-1
kerning first=98 second=61 amount=1
kerning first=102 second=109 amount=-1
kerning first=70 second=122 amount=-1
kerning first=80 second=111 amount=-1
kerning first=83 second=102 amount=-1
kerning first=79 second=69 amount=-1
kerning first=121 second=101 amount=-1
kerning first=82 second=86 amount=-1
kerning first=108 second=121 amount=-1
kerning first=70 second=44 amount=-5
kerning first=89 second=99 amount=-4
kerning first=89 second=114 amount=-2
kerning first=68 second=39 amount=-1
kerning first=104 second=39 amount=-2
kerning first=246 second=39 amount=-1
kerning first=65 second=220 amount=-1
kerning first=84 second=70 amount=-1
kerning first=70 second=79 amount=-1
kerning first=86 second=58 amount=-1
kerning first=87 second=115 amount=-2
kerning first=119 second=46 amount=-2
kerning first=118 second=228 amount=-1
kerning first=87 second=46 amount=-3
kerning first=76 second=46 amount=-1
kerning first=112 second=46 amount=-1
kerning first=121 second=46 amount=-2
kerning first=214 second=89 amount=-2
kerning first=70 second=114 amount=-1
kerning first=86 second=99 amount=-3
kerning first=84 second=120 amount=-3
kerning first=108 second=102 amount=-1
kerning first=76 second=100 amount=-1
kerning first=102 second=113 amount=-1
kerning first=75 second=67 amount=-2
kerning first=99 second=246 amount=-1
kerning first=88 second=118 amount=-1
kerning first=118 second=101 amount=-1
kerning first=82 second=101 amount=-1
kerning first=75 second=121 amount=-1
kerning first=111 second=121 amount=-1
kerning first=89 second=77 amount=-1
kerning first=76 second=79 amount=-1
kerning first=86 second=81 amount=-1
kerning first=86 second=67 amount=-1
kerning first=80 second=246 amount=-1
kerning first=89 second=58 amount=-1
kerning first=111 second=45 amount=1
kerning first=75 second=69 amount=-1
kerning first=83 second=119 amount=-1
kerning first=88 second=116 amount=-1
kerning first=84 second=115 amount=-4
kerning first=196 second=100 amount=-1
kerning first=83 second=65 amount=-1
kerning first=80 second=74 amount=-3
kerning first=88 second=113 amount=-1
kerning first=86 second=121 amount=-1
kerning first=228 second=121 amount=-1
kerning first=107 second=101 amount=-1
kerning first=75 second=99 amount=-3
kerning first=196 second=108 amount=-1
kerning first=87 second=44 amount=-3
kerning first=214 second=74 amount=-1
kerning first=98 second=120 amount=-1
kerning first=87 second=117 amount=-2
kerning first=88 second=81 amount=-1
kerning first=84 second=117 amount=-4
kerning first=86 second=102 amount=-1
kerning first=101 second=44 amount=-1
kerning first=76 second=89 amount=-3
kerning first=88 second=228 amount=-1
kerning first=111 second=102 amount=-1
kerning first=112 second=69 amount=-1
kerning first=82 second=81 amount=-1
kerning first=75 second=101 amount=-3
kerning first=98 second=39 amount=-1
kerning first=214 second=99 amount=-1
kerning first=108 second=99 amount=-1
kerning first=80 second=79 amount=-1
kerning first=68 second=88 amount=-1
kerning first=70 second=100 amount=-1
kerning first=246 second=61 amount=1
kerning first=80 second=67 amount=-1
kerning first=87 second=122 amount=-1
kerning first=65 second=83 amount=-1
kerning first=99 second=113 amount=-1
kerning first=99 second=111 amount=-1
kerning first=89 second=119 amount=-1
kerning first=75 second=102 amount=-1
kerning first=76 second=44 amount=-1
kerning first=214 second=214 amount=-1
kerning first=107 second=100 amount=-1
kerning first=86 second=77 amount=-1
kerning first=75 second=246 amount=-3
kerning first=85 second=196 amount=-1
kerning first=196 second=71 amount=-1
kerning first=84 second=102 amount=-2
kerning first=70 second=46 amount=-5
kerning first=196 second=101 amount=-1
kerning first=102 second=116 amount=-1
kerning first=112 second=120 amount=-1
kerning first=70 second=71 amount=-1
kerning first=102 second=101 amount=-1
kerning first=86 second=119 amount=-1
kerning first=76 second=39 amount=-3
kerning first=112 second=39 amount=-1
kerning first=87 second=252 amount=-2
kerning first=86 second=246 amount=-3
kerning first=214 second=111 amount=-1
kerning first=115 second=44 amount=-1
kerning first=79 second=44 amount=-2
kerning first=70 second=117 amount=-1
kerning first=79 second=71 amount=-1
kerning first=121 second=228 amount=-1
kerning first=84 second=46 amount=-3
kerning first=65 second=67 amount=-1
kerning first=89 second=102 amount=-1
kerning first=76 second=220 amount=-2
kerning first=84 second=100 amount=-5
kerning first=120 second=100 amount=-2
kerning first=121 second=113 amount=-1
kerning first=108 second=101 amount=-1
kerning first=84 second=122 amount=-3
kerning first=65 second=39 amount=-3
kerning first=101 second=39 amount=-1
kerning first=88 second=79 amount=-1
kerning first=99 second=101 amount=-1
kerning first=70 second=112 amount=-1
kerning first=87 second=110 amount=-2
kerning first=75 second=119 amount=-1
kerning first=111 second=119 amount=-1
kerning first=112 second=61 amount=1
kerning first=68 second=44 amount=-2
kerning first=246 second=44 amount=-1
kerning first=86 second=114 amount=-2
kerning first=119 second=99 amount=-1
kerning first=82 second=89 amount=-1
kerning first=67 second=67 amount=-1
kerning first=80 second=89 amount=-1
kerning first=108 second=246 amount=-1
kerning first=214 second=246 amount=-1
kerning first=102 second=111 amount=-1
kerning first=68 second=71 amount=-1
kerning first=88 second=70 amount=-1
kerning first=81 second=58 amount=-1
kerning first=214 second=87 amount=-1
kerning first=214 second=79 amount=-1
kerning first=88 second=101 amount=-1
kerning first=89 second=97 amount=-3
kerning first=196 second=39 amount=-3
